<!--                                           -->
<!--                                           -->
<!--                                           -->
<!--             Page Not Found                -->
<!--                                           -->
<!--                                           -->
<!--                                           -->
<HTML><HEAD>
<TITLE>Page Not Found</TITLE>
</HEAD><BODY>
<H1>Not Found</H1>
<H2>The requested URL could not be retrieved</H2>
<HR>
<P>
Page could not be found
<PRE>
&#47;2018&#47;MENSUEL&#47;DAThttp:&#47;&#47;gateway:6380&#47;2018&#47;MENSUEL&#47;DAT&#47;DECLTVA.230202.165417
</PRE>
<P>
The following error was encountered:
<UL>
<LI>
<STRONG>
Not&#32;Found
</STRONG>
</UL>
</BODY>
</HTML>
